…
## Total steps per day
StepsPerDay <- 
    ActivityDaySplit %>%
        summarise(TotalSteps = sum(steps))
## Print
StepsPerDay
```

```
## # A tibble: 61 x 2
##    date       TotalSteps
##    <date>          <int>
##  1 2012-10-01         NA
##  2 2012-10-02        126
##  3 2012-10-03      11352
##  4 2012-10-04      12116
##  5 2012-10-05      13294
##  6 2012-10-06      15420
##  7 2012-10-07      11015
##  8 2012-10-08         NA
##  9 2012-10-09      12811
## 10 2012-10-10       9900
## # ... with 51 more rows
```
…
### 2. Which 5-minute interval, on average across all the days in the dataset, contains the maximum number of steps?

```r
## Sort grouped table by mean number of steps (to show highest)
print(ActivityIntervalSplitSorted <- 
        ActivityIntervalSplit %>%
         arrange(desc(MeanSteps))
      )
```

```
## # A tibble: 288 x 2
##    interval MeanSteps
##       <int>     <dbl>
##  1      835      206.
##  2      840      196.
##  3      850      183.
##  4      845      180.
##  5      830      177.
##  6      820      171.
##  7      855      167.
##  8      815      158.
##  9      825      155.
## 10      900      143.
## # ... with 278 more rows
```
…
